-------------------------------------------------------------------------------
Test set: com.kcom.vendingmachine.BasicCoinageDeterminerLogicTest
-------------------------------------------------------------------------------
Tests run: 3, Failures: 0, Errors: 0, Skipped: 0, Time elapsed: 0.004 sec
